{
	"info": {
		"_postman_id": "24f22541-166b-47d0-8f9c-b8cf2b55da68",
		"name": "jojonomic",
		"schema": "https://schema.getpostman.com/json/collection/v2.1.0/collection.json"
	},
	"item": [
		{
			"name": "get token",
			"request": {
				"method": "GET",
				"header": [],
				"url": {
					"raw": "{{url}}login?email={{email}}&password={{password}}",
					"host": [
						"{{url}}login"
					],
					"query": [
						{
							"key": "email",
							"value": "{{email}}"
						},
						{
							"key": "password",
							"value": "{{password}}"
						}
					]
				}
			},
			"response": []
		},
		{
			"name": "list",
			"request": {
				"auth": {
					"type": "bearer",
					"bearer": [
						{
							"key": "token",
							"value": "ZDk5cW1pdnlCNFNubTNRV1dmTExzNnY1YUJwd0hQN1kyWGsySGRCWA==",
							"type": "string"
						}
					]
				},
				"method": "GET",
				"header": [],
				"url": {
					"raw": "{{url}}document-service",
					"host": [
						"{{url}}document-service"
					]
				}
			},
			"response": []
		},
		{
			"name": "insert folder",
			"request": {
				"auth": {
					"type": "bearer",
					"bearer": [
						{
							"key": "token",
							"value": "ZDk5cW1pdnlCNFNubTNRV1dmTExzNnY1YUJwd0hQN1kyWGsySGRCWA==",
							"type": "string"
						}
					]
				},
				"method": "POST",
				"header": [],
				"body": {
					"mode": "raw",
					"raw": "{\n        \"id\": \"457cdedsef0de0d3d\",\n        \"name\": \"Folder hgBarud\", \n        \"timestamp\": 16576232323\n}\n",
					"options": {
						"raw": {
							"language": "json"
						}
					}
				},
				"url": {
					"raw": "{{url}}document-service/folder",
					"host": [
						"{{url}}document-service"
					],
					"path": [
						"folder"
					]
				}
			},
			"response": []
		},
		{
			"name": "delete folder",
			"request": {
				"auth": {
					"type": "bearer",
					"bearer": [
						{
							"key": "token",
							"value": "ZDk5cW1pdnlCNFNubTNRV1dmTExzNnY1YUJwd0hQN1kyWGsySGRCWA==",
							"type": "string"
						}
					]
				},
				"method": "DELETE",
				"header": [],
				"body": {
					"mode": "raw",
					"raw": "{\n        \"id\": \"3\" \n}",
					"options": {
						"raw": {
							"language": "json"
						}
					}
				},
				"url": {
					"raw": "{{url}}document-service/folder",
					"host": [
						"{{url}}document-service"
					],
					"path": [
						"folder"
					]
				}
			},
			"response": []
		},
		{
			"name": "list per folder",
			"request": {
				"auth": {
					"type": "bearer",
					"bearer": [
						{
							"key": "token",
							"value": "ZDk5cW1pdnlCNFNubTNRV1dmTExzNnY1YUJwd0hQN1kyWGsySGRCWA==",
							"type": "string"
						}
					]
				},
				"method": "GET",
				"header": [],
				"url": {
					"raw": "{{url}}document-service/folder/ab000001",
					"host": [
						"{{url}}document-service"
					],
					"path": [
						"folder",
						"ab000001"
					]
				}
			},
			"response": []
		},
		{
			"name": "delete document",
			"request": {
				"auth": {
					"type": "bearer",
					"bearer": [
						{
							"key": "token",
							"value": "Ylo2UHVYN3B4NllaQ0VmN1pDNW5ERGFndnIxMWk1OURHV0FkWDZCcA==",
							"type": "string"
						}
					]
				},
				"method": "DELETE",
				"header": [],
				"body": {
					"mode": "raw",
					"raw": "{\n        \"id\": \"fgf\"\n}",
					"options": {
						"raw": {
							"language": "json"
						}
					}
				},
				"url": {
					"raw": "{{url}}document-service/document",
					"host": [
						"{{url}}document-service"
					],
					"path": [
						"document"
					]
				}
			},
			"response": []
		},
		{
			"name": "get detail document",
			"request": {
				"auth": {
					"type": "bearer",
					"bearer": [
						{
							"key": "token",
							"value": "ZDk5cW1pdnlCNFNubTNRV1dmTExzNnY1YUJwd0hQN1kyWGsySGRCWA==",
							"type": "string"
						}
					]
				},
				"method": "GET",
				"header": [],
				"url": {
					"raw": "{{url}}document-service/document/te1",
					"host": [
						"{{url}}document-service"
					],
					"path": [
						"document",
						"te1"
					]
				}
			},
			"response": []
		},
		{
			"name": "insert update document",
			"request": {
				"auth": {
					"type": "bearer",
					"bearer": [
						{
							"key": "token",
							"value": "Ylo2UHVYN3B4NllaQ0VmN1pDNW5ERGFndnIxMWk1OURHV0FkWDZCcA==",
							"type": "string"
						}
					]
				},
				"method": "POST",
				"header": [],
				"body": {
					"mode": "raw",
					"raw": "{\n    \"id\": \"82bfdfd2-329ef0de045d\",\n    \"name\": \"f\",\n    \"type\": \"document\",\n    \"folder_id\": \"ab1\",\n    \"timestamp\": 1605081795, \n    \"content\":\"\",\n    \"owner_id\": 1, \n    \"share\": \"hu\", \n    \"company_id\": 1\n}",
					"options": {
						"raw": {
							"language": "json"
						}
					}
				},
				"url": {
					"raw": "{{url}}document-service/document",
					"host": [
						"{{url}}document-service"
					],
					"path": [
						"document"
					]
				}
			},
			"response": []
		}
	]
}